#SA_OUT
Tmin,0.001
Tmax,24000.0
steps,330000

Energy
64596.28799328308

#Anneal_Class_Terms
terms,wt,fun,wt_fun
pair_energy,50.0,1294.545874131289,64727.29370656446
full_burial,120.0,-0.38900098352387824,-46.680118022865386
hbond_burial,14.0,0.22797444947817766,3.191642292694487
hbond_rank,60.0,-0.7903030303030303,-47.418181818181814
distance_to_nonpolar_res,45.0,-0.5188362950034016,-23.347633275153072
distance_to_sec_struct,60.0,-0.29979372966613543,-17.987623779968125
top_stdev,10.0,0.12362013220926561,1.2362013220926562
comp_deltag_rmse,0.0,-,-

#DeltaG_Output
sa_out_state,num,mapped_energy
nan,1,nan
nan,2,nan
36.0,3,-10.0
38.0,4,-10.0
3.0,5,4.269457575550983
0.0,6,5.283480502595605
16.0,7,2.845965303674413
15.0,8,3.0110602572077054
17.0,9,2.71133950717834
18.0,10,2.805253221548557
11.0,11,4.410386304265675
9.0,12,4.457344257930689
12.0,13,4.390401322518276
13.0,14,3.7202158026473624
8.0,15,4.90223040746784
6.0,16,4.958031585834302
7.0,17,4.97637291780672
10.0,18,4.907026504784598
1.0,19,5.547152526078893
39.0,20,-10.0
37.0,21,-10.0
2.0,22,5.294258785511741
14.0,23,3.8221930926175927
21.0,24,2.62351329878958
22.0,25,1.6967387607131927
19.0,26,3.4871892870320798
20.0,27,3.480526799632097
23.0,28,1.7408761323631063
28.0,29,1.7179592814447875
25.0,30,1.7900444985729012
40.0,31,-10.0
27.0,32,1.8311113140255877
4.0,33,5.51176849786002
41.0,34,-10.0
42.0,35,-10.0
5.0,36,5.558503700338914
26.0,37,2.1036706045188307
29.0,38,2.0610262748915034
32.0,39,2.0307946410532725
30.0,40,2.1574993733648227
24.0,41,2.2497941340786354
34.0,42,2.2149516395524596
35.0,43,2.265079722032837
33.0,44,2.32255945735731
31.0,45,2.5544446157936
